sizeof(short int): 2
sizeof(int): 4
sizeof(unsigned int): 4
sizeof(long int): 8
sizeof(float): 4
sizeof(double): 8
sizeof(char): 1
----------------------------------------------
sizeof(short int): 2
sizeof(int): 4
sizeof(unsigned int): 4
sizeof(long int): 8
sizeof(float): 4
sizeof(double): 8
sizeof(char): 1
